[
  {
    "line": 2,
    "elements": [
      {
        "line": 7,
        "name": "Open Bancolombia page",
        "description": "",
        "type": "background",
        "keyword": "Background",
        "steps": [
          {
            "result": {
              "duration": 27441099588,
              "status": "passed"
            },
            "line": 8,
            "name": "that Bancolombia page is open",
            "match": {
              "location": "StepDefinitions.that_bancolombia_page_is_open()"
            },
            "keyword": "Given "
          }
        ]
      },
      {
        "line": 12,
        "name": "PROOF TO BE PERFORMED-Take Screenshots, compared them  and make a report",
        "description": "",
        "id": "functionality---open-the-bancolombia-home-page-and-click-on-the-transactions-option;proof-to-be-performed-take-screenshots--compared-them--and-make-a-report",
        "type": "scenario",
        "keyword": "Scenario",
        "steps": [
          {
            "result": {
              "duration": 4335060700,
              "status": "passed"
            },
            "line": 13,
            "name": "the user clicks transactions",
            "match": {
              "location": "StepDefinitions.the_user_clicks_transactions()"
            },
            "keyword": "When "
          },
          {
            "result": {
              "duration": 615155,
              "status": "passed"
            },
            "line": 14,
            "name": "the screenshots are taken",
            "match": {
              "location": "StepDefinitions.the_screenshots_are_taken()"
            },
            "keyword": "And "
          },
          {
            "result": {
              "duration": 520640,
              "status": "passed"
            },
            "line": 15,
            "name": "the screenshots should be compared in a report",
            "match": {
              "location": "StepDefinitions.the_screenshots_should_be_compared_in_a_report()"
            },
            "keyword": "Then "
          }
        ],
        "tags": [
          {
            "name": "@Feature1"
          },
          {
            "name": "@tag1"
          }
        ]
      }
    ],
    "name": "FUNCTIONALITY - open the Bancolombia home page and click on the transactions option",
    "description": "HOW opening Bancolombia\nWANT click on the transactions option\nTO  apply the knowledge obtained with cucumber.",
    "id": "functionality---open-the-bancolombia-home-page-and-click-on-the-transactions-option",
    "keyword": "Feature",
    "uri": "src/test/resources/Features/bancolombia.feature"
  }
]